<?xml version="1.0" encoding="UTF-8"?>
<!DOCTYPE svg PUBLIC "-//W3C//DTD SVG 1.1//EN" "http://www.w3.org/Graphics/SVG/1.1/DTD/svg11.dtd">
<!-- Creator: CorelDRAW X8 -->
<svg xmlns="http://www.w3.org/2000/svg" xml:space="preserve" width="100mm" height="100mm" version="1.1" style="shape-rendering:geometricPrecision; text-rendering:geometricPrecision; image-rendering:optimizeQuality; fill-rule:evenodd; clip-rule:evenodd"
viewBox="0 0 10000 10000"
 xmlns:xlink="http://www.w3.org/1999/xlink">
 <defs>
  <style type="text/css">
   <![CDATA[
    .fil0 {fill:#807FA4}
    .fil1 {fill:#ED7782}
   ]]>
  </style>
 </defs>
 <g id="Слой_x0020_1">
  <metadata id="CorelCorpID_0Corel-Layer"/>
  <path class="fil0" d="M8509 3043c0,176 9,1629 -5,1671 -40,10 -561,4 -648,4 -271,0 -242,19 -241,-83l0 -313c0,-218 0,-435 0,-652 0,-100 7,-577 -3,-630 -29,5 -119,107 -151,139l-314 313c-37,38 -80,73 -114,116l-115 116c-66,59 -115,114 -172,173l-402 398c-20,21 -36,38 -55,60 -52,59 -118,109 -170,169 -16,19 -29,31 -40,42 156,236 270,504 328,792 38,-1 47,0 89,10 42,10 145,3 196,2 80,-2 101,-22 164,53 50,60 41,88 41,184 0,152 0,303 0,454 1,179 -81,213 -250,213 -77,0 -154,0 -231,0l-10 0c-60,288 -174,556 -332,792 10,10 20,20 30,30l131 132c57,56 117,93 116,189 0,89 -47,116 -98,169l-217 218c-33,32 -60,60 -90,89 -27,27 -56,64 -91,81 -38,19 -104,20 -146,3 -26,-12 -68,-58 -91,-81l-177 -176c-4,-4 -9,-9 -13,-12 -236,155 -503,267 -790,325 0,35 2,98 2,209 0,137 6,211 -86,269 -53,33 -83,20 -146,20l-525 0c-43,0 -37,-2 -71,-20 -141,-73 -70,-312 -85,-481 -284,-58 -549,-171 -783,-325 -7,7 -16,16 -26,26l-147 147c-15,15 -24,23 -40,38 -17,15 -19,23 -35,35 -117,88 -208,16 -288,-64 -44,-44 -345,-342 -361,-367 -85,-136 1,-209 92,-299l134 -134c8,-9 18,-17 26,-25 -156,-235 -269,-501 -328,-786 -131,-6 -352,17 -430,-29 -54,-33 -74,-99 -74,-179l0 -506c0,-72 16,-132 74,-172 81,-56 291,-31 428,-32 58,-286 171,-553 326,-788l-2 -2c-39,-38 -73,-73 -112,-112 -90,-90 -189,-150 -163,-278 12,-60 63,-102 94,-130l335 -336c172,-174 294,26 412,137 37,34 59,60 75,77 237,-157 505,-272 794,-331 7,-105 -9,-228 -4,-329 2,-29 17,-67 30,-89 38,-64 107,-76 180,-76l506 0c84,-1 132,19 171,77 52,80 22,279 27,414 290,59 560,173 799,331 9,-10 18,-20 23,-26 88,-87 250,-241 328,-325l131 -131c21,-22 44,-45 67,-68l853 -854c26,-28 43,-43 67,-67 27,-26 45,-37 56,-72 -33,-3 -78,-3 -111,-2 -283,13 -1488,-23 -1553,5 -22,-29 -18,-47 -18,-95 1,-124 -12,-773 10,-792 20,-16 2647,-6 2994,-6 238,0 227,-25 220,70 -3,29 5,40 5,70l0 210c0,401 -1,802 0,1203zm-4321 1183c876,0 1587,710 1587,1587 0,876 -711,1586 -1587,1586 -876,0 -1586,-710 -1586,-1586 0,-877 710,-1587 1586,-1587zm4448 5646c49,0 223,-23 267,-40l115 -38c56,-17 153,-69 208,-99 16,-8 32,-21 46,-30l90 -64c55,-39 92,-82 136,-127 40,-40 56,-56 88,-104l121 -186c46,-87 121,-303 126,-405 2,-38 11,-98 11,-134l0 -7252c0,-126 -16,-169 -33,-274 -5,-31 -12,-22 -19,-56 -21,-96 -113,-287 -174,-364 -12,-15 -19,-27 -31,-45 -47,-67 -197,-220 -269,-263l-187 -113c-106,-47 -166,-71 -289,-97 -68,-14 -107,-27 -193,-27l-7338 0c-65,0 -272,43 -318,64 -47,22 -90,29 -158,66 -17,10 -34,16 -50,26l-136 87c-118,97 -72,57 -158,143 -69,68 -117,128 -168,210l-79 145c-9,18 -15,34 -23,54 -11,24 -10,34 -20,57 -11,26 -10,29 -18,57 -21,68 -22,96 -30,119 -13,38 -21,161 -21,204l0 7272c0,40 8,105 12,146l25 125c26,86 89,244 136,319 36,58 81,124 126,175 47,53 95,104 150,150 48,39 124,97 179,128 54,31 217,107 262,116 25,5 32,8 54,16 48,17 207,39 261,39l7299 0z"/>
  <path class="fil1" d="M2320 7799c-105,-104 -262,-261 -273,-279 -85,-136 1,-209 92,-299l134 -135c9,-8 18,-16 26,-24 -156,-235 -269,-501 -328,-786 -131,-6 -352,17 -430,-29 -54,-33 -74,-99 -74,-179l0 -506c0,-72 16,-132 74,-172 81,-56 291,-31 428,-32 58,-286 170,-553 326,-788l-2 -2c-39,-38 -73,-73 -112,-112 -90,-90 -189,-150 -163,-278 12,-60 63,-102 94,-130l335 -336c172,-174 294,26 412,137 37,34 59,60 75,77 237,-157 505,-272 794,-331 7,-105 -9,-228 -4,-329 2,-29 17,-67 30,-89 38,-64 107,-76 180,-76l506 0c84,-1 132,19 171,77 52,80 22,279 27,414 290,59 560,173 798,331 10,-10 19,-20 24,-26 88,-87 250,-241 328,-325l131 -131c21,-22 44,-45 67,-68l853 -854c26,-28 43,-43 67,-67 27,-26 45,-37 56,-72 -33,-3 -77,-3 -111,-2 -283,13 -1488,-23 -1553,5 -22,-29 -18,-47 -18,-95 1,-124 -12,-773 10,-792 20,-16 2647,-7 2994,-7 238,0 227,-24 220,71 -3,29 5,40 5,70l0 95 1083 -1064 -5 -7c-47,-67 -197,-220 -269,-263l-187 -113c-106,-47 -166,-71 -289,-97 -68,-14 -107,-27 -193,-27l-7338 0c-65,0 -272,43 -318,64 -47,22 -90,29 -158,66 -17,10 -34,16 -50,26l-136 87c-118,97 -72,57 -158,143 -69,68 -117,128 -168,210l-79 145c-9,18 -15,34 -23,53 -11,25 -10,35 -20,58 -11,26 -10,29 -18,57 -21,68 -22,96 -30,119 -13,38 -21,161 -21,204l0 7272c0,40 8,105 12,146l25 125c26,86 89,244 136,319 36,58 81,124 126,175 37,41 73,81 114,119l1775 -1743zm3074 -3017l-2259 2217c-327,-290 -533,-714 -533,-1186 0,-877 710,-1587 1586,-1587 483,0 915,216 1206,556z"/>
 </g>
</svg>
