<?xml version="1.0" encoding="utf-8"?>
<!-- Generator: Adobe Illustrator 16.0.0, SVG Export Plug-In . SVG Version: 6.00 Build 0)  -->
<!DOCTYPE svg PUBLIC "-//W3C//DTD SVG 1.1//EN" "http://www.w3.org/Graphics/SVG/1.1/DTD/svg11.dtd">
<svg version="1.1" id="Слой_1" xmlns="http://www.w3.org/2000/svg" xmlns:xlink="http://www.w3.org/1999/xlink" x="0px" y="0px"
	 width="60px" height="60px" viewBox="0 0 60 60" enable-background="new 0 0 60 60" xml:space="preserve">
<g>
	<rect opacity="0" fill="#FFFFFF" width="60" height="60"/>
	<g>
		<g>
			<path fill="#FF0000" d="M37.715,29.637c-1.462,0-2.652,1.189-2.652,2.651c0,1.463,1.19,2.653,2.652,2.653
				c1.463,0,2.651-1.189,2.651-2.653C40.366,30.826,39.178,29.637,37.715,29.637L37.715,29.637z M37.715,29.637"/>
			<g>
				<path fill="#FF0000" d="M22.285,19.146c-1.462,0-2.652,1.189-2.652,2.651s1.19,2.652,2.652,2.652
					c1.463,0,2.652-1.19,2.652-2.652S23.748,19.146,22.285,19.146L22.285,19.146z M22.285,19.146"/>
				<path fill="#FF0000" d="M56.031,36.339c-0.361-0.949-1.273-1.578-2.291-1.578h-4.694V4.742C49.046,2.123,46.923,0,44.303,0
					H15.696c-2.619,0-4.742,2.123-4.742,4.742v30.019H6.259c-1.017,0-1.929,0.629-2.291,1.578c-0.36,0.953-0.098,2.027,0.663,2.703
					L26.848,58.8c1.797,1.6,4.507,1.6,6.304,0L55.37,39.042C56.129,38.367,56.394,37.291,56.031,36.339L56.031,36.339z
					 M16.291,21.798c0-3.305,2.689-5.993,5.994-5.993c3.306,0,5.994,2.688,5.994,5.993c0,3.306-2.688,5.994-5.994,5.994
					C18.98,27.792,16.291,25.104,16.291,21.798L16.291,21.798z M25.697,39.125c-0.295,0.578-0.883,0.912-1.49,0.912
					c-0.255,0-0.514-0.059-0.756-0.182c-0.822-0.418-1.15-1.424-0.732-2.246l11.514-22.645c0.418-0.822,1.424-1.149,2.246-0.732
					c0.822,0.419,1.15,1.425,0.732,2.248L25.697,39.125z M37.715,38.283c-3.305,0-5.994-2.689-5.994-5.994
					c0-3.306,2.689-5.994,5.994-5.994s5.993,2.688,5.993,5.994C43.708,35.593,41.02,38.283,37.715,38.283L37.715,38.283z
					 M37.715,38.283"/>
			</g>
		</g>
	</g>
</g>
</svg>
