<svg width="60" height="60" xmlns="http://www.w3.org/2000/svg">

 <g>
  <title>background</title>
  <rect fill="none" id="canvas_background" height="402" width="582" y="-1" x="-1"/>
 </g>
 <g>
  <title>Layer 1</title>
  <g id="svg_1">
   <rect id="svg_2" height="60" width="60" fill="#BBBBBB" opacity="0"/>
   <g id="svg_3">
    <g id="svg_4">
     <g id="svg_5">
      <rect id="svg_6" height="10.681" width="19.582" fill="#BBBBBB" y="20.242" x="4.78"/>
      <rect id="svg_7" height="10.681" width="3.561" fill="#BBBBBB" y="20.242" x="28.517"/>
      <rect id="svg_8" height="10.681" width="18.99" fill="#BBBBBB" y="20.242" x="36.229"/>
     </g>
     <g id="svg_9">
      <rect id="svg_10" height="26.704" width="16.615" fill="#BBBBBB" y="33.296" x="7.747"/>
      <rect id="svg_11" height="26.704" width="3.561" fill="#BBBBBB" y="33.296" x="28.517"/>
      <rect id="svg_12" height="26.704" width="16.023" fill="#BBBBBB" y="33.296" x="36.229"/>
     </g>
     <path id="svg_13" d="m47.042,8.213c0.439,-1.792 0.838,-5.02 -1.246,-6.807c-1.02,-0.878 -2.527,-1.406 -4.035,-1.406c-2.404,0 -6.463,1.258 -9.215,8.747c-0.742,-0.463 -1.609,-0.736 -2.547,-0.736c-0.736,0 -1.43,0.172 -2.053,0.469c-2.748,-7.251 -6.742,-8.48 -9.115,-8.48c-1.506,0 -3.014,0.528 -4.035,1.406c-2.082,1.787 -1.686,5.015 -1.246,6.807c-2.836,2.843 -2.836,5.133 -2.291,6.593c1.098,2.914 4.92,3.994 7.068,3.994c2.475,0 6.189,-1.478 8.391,-2.468c0.861,0.807 2.012,1.305 3.281,1.305c1.365,0 2.594,-0.575 3.473,-1.489c2.123,0.973 6.164,2.652 8.793,2.652c2.148,0 5.971,-1.08 7.068,-3.994c0.545,-1.46 0.545,-3.75 -2.291,-6.593zm-21.838,4.896c-2.303,1.026 -5.305,2.13 -6.877,2.13c-1.4,0 -3.383,-0.753 -3.732,-1.685c-0.279,-0.742 0.521,-2.029 2.137,-3.448l0.902,-0.783l-0.393,-1.133c-0.516,-1.496 -0.684,-3.602 -0.125,-4.083c0.236,-0.202 0.861,-0.546 1.715,-0.546c2.588,0 4.938,3.032 6.469,8.237c-0.072,0.332 -0.113,0.676 -0.113,1.026c0,0.095 0.011,0.19 0.017,0.285zm20.793,0.445c-0.35,0.932 -2.332,1.685 -3.732,1.685c-1.668,0 -4.943,-1.246 -7.285,-2.314c1.518,-5.893 4.01,-9.364 6.781,-9.364c0.855,0 1.479,0.344 1.715,0.546c0.553,0.475 0.385,2.582 -0.125,4.083l-0.391,1.133l0.9,0.783c1.616,1.418 2.416,2.706 2.137,3.448z" fill="#BBBBBB"/>
    </g>
   </g>
  </g>
 </g>
</svg>