<svg xmlns="http://www.w3.org/2000/svg" xmlns:xlink="http://www.w3.org/1999/xlink" version="1.1" id="Capa_1" x="0px" y="0px" width="293.373px" height="293.373px" viewBox="0 0 293.373 293.373" style="fill: rgb(0, 0, 0);" xml:space="preserve">
<g style="fill: rgb(0, 0, 0);">
	<g style="fill: rgb(0, 0, 0);">
		<g style="fill: rgb(0, 0, 0);">
			<path d="M130.265,162.904c-24.162,0-95.274,0-95.274,0c-7.549,0-13.726,6.176-13.726,13.725v103.02     c0,7.549,6.177,13.725,13.726,13.725c0,0,72.6,0,96.876,0c3.229,0,3.229-3.469,3.229-3.469V167.568     C135.095,167.568,135.095,162.904,130.265,162.904z" style="fill: rgb(0, 0, 0);"></path>
			<path d="M258.383,162.904c0,0-71.384,0-95.177,0c-5.797,0-4.929,6.037-4.929,6.037v121.076c0,0-0.047,3.354,3.44,3.354     c24.166,0,96.664,0,96.664,0c7.549,0,13.726-6.176,13.726-13.725V176.629C272.109,169.08,265.932,162.904,258.383,162.904z" style="fill: rgb(0, 0, 0);"></path>
		</g>
		<g style="fill: rgb(0, 0, 0);">
			<path d="M135.095,81.846c0,0,0-4.651-4.596-4.651c-27.521,0-111.008,0-111.008,0c-7.549,0-13.726,6.177-13.726,13.725v42.845     c0,7.549,6.177,13.725,13.726,13.725c0,0,83.861,0,111.384,0c4.22,0,4.22-3.66,4.22-3.66V81.846L135.095,81.846z" style="fill: rgb(0, 0, 0);"></path>
			<path d="M273.882,77.195c0,0-83.521,0-111.362,0c-4.241,0-4.241,4.041-4.241,4.041v62.679c0,0,0,3.575,5.156,3.575     c27.611,0,110.447,0,110.447,0c7.549,0,13.726-6.176,13.726-13.725V90.92C287.608,83.372,281.431,77.195,273.882,77.195z" style="fill: rgb(0, 0, 0);"></path>
		</g>
		<g style="fill: rgb(0, 0, 0);">
			<path d="M88.41,67.04c-6.28,0-12.016-0.498-17.046-1.481c-12.776-2.496-21.557-7.354-26.845-14.85     c-4.738-6.718-6.188-15-4.311-24.617C43.496,9.266,54.796,0,72.024,0c3.646,0,7.65,0.421,11.902,1.252     c10.816,2.113,24.65,8.315,37.007,16.59c20.965,14.041,22.002,22.77,20.958,28.115c-1.535,7.854-8.876,13.466-22.443,17.158     C110.282,65.609,98.969,67.04,88.41,67.04z M72.025,21.999c-6.672,0-8.965,1.864-10.224,8.311     c-1.03,5.271,0.269,7.112,0.695,7.717c1.784,2.53,6.431,4.64,13.086,5.939c3.591,0.702,8.028,1.073,12.827,1.073     c10.553,0,19.85-1.599,26.019-3.348c0.449-0.127,1.146-0.658,0.399-1.103c-8.065-6.57-22.82-15.343-35.119-17.746     C76.843,22.284,74.257,21.999,72.025,21.999z" style="fill: rgb(0, 0, 0);"></path>
		</g>
		<g style="fill: rgb(0, 0, 0);">
			<path d="M205.281,67.04c0,0,0,0-0.002,0c-10.559,0-21.871-1.431-31.037-3.925c-13.568-3.691-20.908-9.304-22.443-17.157     c-1.043-5.345-0.008-14.074,20.959-28.115c12.355-8.275,26.189-14.477,37.007-16.59c4.252-0.831,8.256-1.252,11.899-1.252     c17.232,0,28.531,9.267,31.816,26.093c1.879,9.616,0.43,17.898-4.309,24.616c-5.288,7.497-14.068,12.354-26.847,14.85     C217.296,66.541,211.56,67.04,205.281,67.04z M179.039,40.452c-0.715,0.415-0.369,1.07,0.002,1.177     c6.166,1.773,15.561,3.411,26.238,3.411c4.801,0,9.236-0.371,12.828-1.073c6.654-1.3,11.303-3.409,13.086-5.939     c0.428-0.605,1.728-2.446,0.695-7.717C230.63,23.864,228.336,22,221.663,22c-2.231,0-4.815,0.284-7.682,0.844     C201.681,25.246,187.104,33.881,179.039,40.452z" style="fill: rgb(0, 0, 0);"></path>
		</g>
	</g>
</g>
<g style="fill: rgb(0, 0, 0);">
</g>
<g style="fill: rgb(0, 0, 0);">
</g>
<g style="fill: rgb(0, 0, 0);">
</g>
<g style="fill: rgb(0, 0, 0);">
</g>
<g style="fill: rgb(0, 0, 0);">
</g>
<g style="fill: rgb(0, 0, 0);">
</g>
<g style="fill: rgb(0, 0, 0);">
</g>
<g style="fill: rgb(0, 0, 0);">
</g>
<g style="fill: rgb(0, 0, 0);">
</g>
<g style="fill: rgb(0, 0, 0);">
</g>
<g style="fill: rgb(0, 0, 0);">
</g>
<g style="fill: rgb(0, 0, 0);">
</g>
<g style="fill: rgb(0, 0, 0);">
</g>
<g style="fill: rgb(0, 0, 0);">
</g>
<g style="fill: rgb(0, 0, 0);">
</g>
</svg>