<?xml version="1.0" encoding="utf-8"?>
<!-- Generator: Adobe Illustrator 16.0.0, SVG Export Plug-In . SVG Version: 6.00 Build 0)  -->
<!DOCTYPE svg PUBLIC "-//W3C//DTD SVG 1.1//EN" "http://www.w3.org/Graphics/SVG/1.1/DTD/svg11.dtd">
<svg version="1.1" id="Слой_1" xmlns="http://www.w3.org/2000/svg" xmlns:xlink="http://www.w3.org/1999/xlink" x="0px" y="0px"
	 width="60px" height="60px" viewBox="0 0 60 60" enable-background="new 0 0 60 60" xml:space="preserve">
<g>
	<rect opacity="0" fill="#FFFFFF" width="60" height="60"/>
	<g>
		<g>
			<path fill="#FF0000" d="M41.676,52.792h-6.377c-0.23,0-0.418-0.188-0.418-0.418V50.97c0-0.23-0.189-0.418-0.42-0.418h-8.922
				c-0.23,0-0.418,0.188-0.418,0.418v1.404c0,0.23-0.188,0.418-0.418,0.418h-6.377c-0.23,0-0.42,0.189-0.42,0.42v1.795
				c0,0.23,0.189,0.418,0.42,0.418h23.35c0.23,0,0.418-0.188,0.418-0.418v-1.795C42.094,52.982,41.906,52.792,41.676,52.792
				L41.676,52.792z M41.676,52.792"/>
			<path fill="#FF0000" d="M56.639,4.576H3.361C1.508,4.576,0,6.084,0,7.938v37.025c0,1.854,1.508,3.361,3.361,3.361h53.277
				c1.854,0,3.361-1.51,3.361-3.361V7.938C60,6.084,58.492,4.576,56.639,4.576L56.639,4.576z M30,45.421
				c-0.836,0-1.514-0.678-1.514-1.516c0-0.836,0.678-1.514,1.514-1.514c0.838,0,1.516,0.678,1.516,1.514
				C31.516,44.744,30.838,45.421,30,45.421L30,45.421z M57.457,40.761H2.545V7.938c0-0.443,0.373-0.817,0.816-0.817h53.277
				c0.443,0,0.818,0.374,0.818,0.817V40.761z M57.457,40.761"/>
			<path fill="#FF0000" d="M34.867,24.632l-7.166-4.668c-0.213-0.126-0.387-0.027-0.387,0.22v9.354c0,0.247,0.174,0.347,0.387,0.221
				l7.166-4.668C35.08,24.964,35.08,24.758,34.867,24.632L34.867,24.632z M34.867,24.632"/>
			<path fill="#FF0000" d="M30,15.015c-5.43,0-9.846,4.417-9.846,9.846S24.57,34.707,30,34.707s9.846-4.417,9.846-9.846
				S35.43,15.015,30,15.015L30,15.015z M30,32.64c-4.289,0-7.779-3.489-7.779-7.78c0-4.289,3.49-7.78,7.779-7.78
				c4.291,0,7.781,3.491,7.781,7.78C37.781,29.15,34.291,32.64,30,32.64L30,32.64z M30,32.64"/>
		</g>
	</g>
</g>
</svg>
