<?xml version="1.0" encoding="UTF-8"?>
<!DOCTYPE svg PUBLIC "-//W3C//DTD SVG 1.1//EN" "http://www.w3.org/Graphics/SVG/1.1/DTD/svg11.dtd">
<!-- Creator: CorelDRAW X7 -->
<svg xmlns="http://www.w3.org/2000/svg" xml:space="preserve" width="100%" height="100%" version="1.1" style="shape-rendering:geometricPrecision; text-rendering:geometricPrecision; image-rendering:optimizeQuality; fill-rule:evenodd; clip-rule:evenodd"
viewBox="0 0 250000 50000"
 xmlns:xlink="http://www.w3.org/1999/xlink">
 <defs>
  <style type="text/css">
   <![CDATA[
    .fil3 {fill:#025F99;fill-rule:nonzero}
    .fil2 {fill:#7C0082;fill-rule:nonzero}
    .fil20 {fill:url(#id0);fill-rule:nonzero}
    .fil4 {fill:url(#id1);fill-rule:nonzero}
    .fil5 {fill:url(#id2);fill-rule:nonzero}
    .fil18 {fill:url(#id3);fill-rule:nonzero}
    .fil25 {fill:url(#id4);fill-rule:nonzero}
    .fil15 {fill:url(#id5);fill-rule:nonzero}
    .fil28 {fill:url(#id6);fill-rule:nonzero}
    .fil13 {fill:url(#id7);fill-rule:nonzero}
    .fil27 {fill:url(#id8);fill-rule:nonzero}
    .fil7 {fill:url(#id9);fill-rule:nonzero}
    .fil29 {fill:url(#id10);fill-rule:nonzero}
    .fil24 {fill:url(#id11);fill-rule:nonzero}
    .fil23 {fill:url(#id12);fill-rule:nonzero}
    .fil30 {fill:url(#id13);fill-rule:nonzero}
    .fil22 {fill:url(#id14);fill-rule:nonzero}
    .fil10 {fill:url(#id15);fill-rule:nonzero}
    .fil16 {fill:url(#id16);fill-rule:nonzero}
    .fil31 {fill:url(#id17);fill-rule:nonzero}
    .fil19 {fill:url(#id18);fill-rule:nonzero}
    .fil12 {fill:url(#id19);fill-rule:nonzero}
    .fil26 {fill:url(#id20);fill-rule:nonzero}
    .fil11 {fill:url(#id21);fill-rule:nonzero}
    .fil32 {fill:url(#id22);fill-rule:nonzero}
    .fil9 {fill:url(#id23);fill-rule:nonzero}
    .fil21 {fill:url(#id24);fill-rule:nonzero}
    .fil17 {fill:url(#id25);fill-rule:nonzero}
    .fil33 {fill:url(#id26);fill-rule:nonzero}
    .fil14 {fill:url(#id27);fill-rule:nonzero}
    .fil8 {fill:url(#id28);fill-rule:nonzero}
    .fil0 {fill:url(#id29);fill-rule:nonzero}
    .fil1 {fill:url(#id30);fill-rule:nonzero}
    .fil6 {fill:url(#id31);fill-rule:nonzero}
   ]]>
  </style>
  <linearGradient id="id0" gradientUnits="userSpaceOnUse" x1="39972.2" y1="31258.7" x2="45805.6" y2="28800.6">
   <stop offset="0" style="stop-opacity:1; stop-color:#FF4AF0"/>
   <stop offset="0.321569" style="stop-opacity:1; stop-color:#E93BDF"/>
   <stop offset="1" style="stop-opacity:1; stop-color:#94039C"/>
  </linearGradient>
  <linearGradient id="id1" gradientUnits="userSpaceOnUse" x1="35093.4" y1="27623.8" x2="40359.1" y2="24716.5">
   <stop offset="0" style="stop-opacity:1; stop-color:#21D9EA"/>
   <stop offset="0.74902" style="stop-opacity:1; stop-color:#148BCC"/>
   <stop offset="1" style="stop-opacity:1; stop-color:#1283C9"/>
  </linearGradient>
  <linearGradient id="id2" gradientUnits="userSpaceOnUse" xlink:href="#id0" x1="36638.7" y1="30076" x2="38813.7" y2="31735.9">
  </linearGradient>
  <linearGradient id="id3" gradientUnits="userSpaceOnUse" xlink:href="#id1" x1="26737" y1="26241.2" x2="32460.5" y2="27843.8">
  </linearGradient>
  <linearGradient id="id4" gradientUnits="userSpaceOnUse" xlink:href="#id1" x1="35448.7" y1="17994.4" x2="36455" y2="17432">
  </linearGradient>
  <linearGradient id="id5" gradientUnits="userSpaceOnUse" xlink:href="#id0" x1="45567.2" y1="39994.5" x2="39643.9" y2="40791.9">
  </linearGradient>
  <linearGradient id="id6" gradientUnits="userSpaceOnUse" xlink:href="#id0" x1="46824.3" y1="31840.6" x2="48202.5" y2="32890.5">
  </linearGradient>
  <linearGradient id="id7" gradientUnits="userSpaceOnUse" xlink:href="#id1" x1="29427.1" y1="39291" x2="35150.6" y2="40893.5">
  </linearGradient>
  <linearGradient id="id8" gradientUnits="userSpaceOnUse" xlink:href="#id0" x1="40757.3" y1="44546.8" x2="42135.6" y2="45596.8">
  </linearGradient>
  <linearGradient id="id9" gradientUnits="userSpaceOnUse" xlink:href="#id1" x1="21700.3" y1="31506.9" x2="27423.8" y2="33109.5">
  </linearGradient>
  <linearGradient id="id10" gradientUnits="userSpaceOnUse" xlink:href="#id0" x1="40825.8" y1="25395.2" x2="42296" y2="26515.1">
  </linearGradient>
  <linearGradient id="id11" gradientUnits="userSpaceOnUse" xlink:href="#id0" x1="38640.4" y1="17363.2" x2="39559.2" y2="18063.2">
  </linearGradient>
  <linearGradient id="id12" gradientUnits="userSpaceOnUse" xlink:href="#id1" x1="33051.7" y1="44980.5" x2="34158.7" y2="44361.8">
  </linearGradient>
  <linearGradient id="id13" gradientUnits="userSpaceOnUse" xlink:href="#id1" x1="33093.2" y1="26662.2" x2="34804" y2="25706.1">
  </linearGradient>
  <linearGradient id="id14" gradientUnits="userSpaceOnUse" xlink:href="#id1" x1="33136.6" y1="36278.7" x2="34646.1" y2="35435.1">
  </linearGradient>
  <linearGradient id="id15" gradientUnits="userSpaceOnUse" xlink:href="#id0" x1="34807.2" y1="41408.7" x2="39557.8" y2="45014.5">
  </linearGradient>
  <linearGradient id="id16" gradientUnits="userSpaceOnUse" xlink:href="#id0" x1="48772.4" y1="26429.6" x2="42849.1" y2="27227">
  </linearGradient>
  <linearGradient id="id17" gradientUnits="userSpaceOnUse" xlink:href="#id0" x1="41053.1" y1="34775.3" x2="43442.2" y2="36595.3">
  </linearGradient>
  <linearGradient id="id18" gradientUnits="userSpaceOnUse" xlink:href="#id1" x1="31659.3" y1="20746.6" x2="37382.8" y2="22349.2">
  </linearGradient>
  <linearGradient id="id19" gradientUnits="userSpaceOnUse" xlink:href="#id1" x1="25535" y1="35284.5" x2="31258.6" y2="36887.1">
  </linearGradient>
  <linearGradient id="id20" gradientUnits="userSpaceOnUse" xlink:href="#id1" x1="28615" y1="32043.3" x2="30124.5" y2="31199.7">
  </linearGradient>
  <linearGradient id="id21" gradientUnits="userSpaceOnUse" xlink:href="#id1" x1="36581.5" y1="47933.5" x2="38870.9" y2="46674.3">
  </linearGradient>
  <linearGradient id="id22" gradientUnits="userSpaceOnUse" xlink:href="#id0" x1="39157.1" y1="20002.6" x2="66401.2" y2="16339.5">
  </linearGradient>
  <linearGradient id="id23" gradientUnits="userSpaceOnUse" xlink:href="#id0" x1="39328.8" y1="32708.9" x2="40988.6" y2="33968">
  </linearGradient>
  <linearGradient id="id24" gradientUnits="userSpaceOnUse" xlink:href="#id1" x1="31744.1" y1="33333.7" x2="36157.4" y2="29015.7">
  </linearGradient>
  <linearGradient id="id25" gradientUnits="userSpaceOnUse" xlink:href="#id0" x1="43621.5" y1="21163.9" x2="37755.1" y2="21961.3">
  </linearGradient>
  <linearGradient id="id26" gradientUnits="userSpaceOnUse" xlink:href="#id1" x1="18838.5" y1="31392.5" x2="26279.1" y2="5006.82">
  </linearGradient>
  <linearGradient id="id27" gradientUnits="userSpaceOnUse" xlink:href="#id0" x1="49688.4" y1="35873.2" x2="43822.1" y2="36670.6">
  </linearGradient>
  <linearGradient id="id28" gradientUnits="userSpaceOnUse" xlink:href="#id0" x1="35551.3" y1="35284.5" x2="39901.2" y2="38661.4">
  </linearGradient>
  <linearGradient id="id29" gradientUnits="userSpaceOnUse" x1="67384.9" y1="28609.2" x2="247976" y2="28609.2">
   <stop offset="0" style="stop-opacity:1; stop-color:#00BBCC"/>
   <stop offset="1" style="stop-opacity:1; stop-color:#99008C"/>
  </linearGradient>
  <linearGradient id="id30" gradientUnits="userSpaceOnUse" x1="67384.9" y1="28132.5" x2="247976" y2="28132.5">
   <stop offset="0" style="stop-opacity:1; stop-color:#21D9EA"/>
   <stop offset="1" style="stop-opacity:1; stop-color:#DA24CA"/>
  </linearGradient>
  <linearGradient id="id31" gradientUnits="userSpaceOnUse" xlink:href="#id0" x1="53866.7" y1="31695.3" x2="47943.3" y2="32492.7">
  </linearGradient>
 </defs>
 <g id="Слой_x0020_1">
  <metadata id="CorelCorpID_0Corel-Layer"/>
  <path class="fil0" d="M79480 37785l-2800 0 0 -2681 -6495 0 0 2681 -2800 0 0 -5958 834 0c417,-1252 775,-2979 1072,-5065 298,-2085 418,-4349 418,-6852l0 -476 8937 0 0 12333 834 0 0 5958 0 60zm-4886 -5958l0 -9236 -1191 0 0 120c0,2979 -298,6017 -954,9175l2145 0 0 -59zm10606 -3456c-834,0 -1252,357 -1252,1072l0 4111c0,537 -59,954 -178,1132 -119,239 -179,358 -239,358l-3336 0c298,-417 417,-1013 417,-1847l0 -3515c0,-775 179,-1311 596,-1728 417,-417 1132,-656 2145,-834l0 0c-1788,-120 -2741,-954 -2741,-2562l0 -3337c0,-834 -119,-1430 -417,-1847l3336 0c120,60 179,179 298,417 119,238 119,596 119,1073l0 3872c0,715 418,1073 1252,1132l0 -6494 4051 0 0 6494c834,0 1251,-417 1251,-1132l0 -3872c0,-537 60,-894 179,-1132 119,-239 179,-358 238,-358l3337 0c-298,417 -417,1013 -417,1847l0 3337c0,1608 -894,2442 -2741,2562l0 0c1013,178 1728,476 2145,834 417,417 596,953 596,1728l0 3515c0,834 119,1430 417,1847l-3337 0c-119,-60 -178,-179 -297,-417 -120,-238 -120,-596 -120,-1073l0 -4111c0,-715 -417,-1072 -1251,-1072l0 6733 -4051 0 0 -6733 0 0zm10069 -8878l6733 0 0 3098 -2682 0 0 2980 2503 0 0 2979 -2503 0 0 3455 2979 0 0 3098 -7030 0 0 -15610 0 0zm17398 0l0 15611 -4052 0 0 -6554 -1192 0 0 6554 -4051 0 0 -15611 4051 0 0 5601 1192 0 0 -5601 4052 0zm1608 0l6733 0 0 3098 -2681 0 0 2980 2502 0 0 2979 -2502 0 0 3455 2979 0 0 3098 -7031 0 0 -15610 0 0zm8163 0l4051 0c1073,0 1967,60 2562,239 596,178 1013,417 1311,774 298,358 477,715 596,1192 119,476 179,1191 179,2145l0 1370c0,1013 -119,1728 -298,2205 -179,476 -596,834 -1132,1072 -536,238 -1251,358 -2145,358l-1073 0 0 6315 -4051 0 0 -15610 0 -60zm4051 2681l0 3992c120,0 239,0 298,0 358,0 596,-119 775,-298 119,-178 238,-536 238,-1132l0 -1310c0,-537 -59,-894 -238,-1073 -179,-179 -536,-238 -1013,-238l-60 59zm14777 12930l-3397 0 0 -7091 -2085 7091 -3515 0 0 -15611 3396 0 0 7031 2264 -7031 3337 0 0 15611 0 0zm1608 -15611l4052 0 0 6614c774,0 1132,-417 1132,-1251l59 -3039c0,-1132 239,-1907 656,-2264l3753 0c-357,357 -536,1191 -536,2324l0 2681c0,1608 -893,2562 -2741,2740 1848,239 2741,1132 2741,2801l0 2502c0,1192 179,2026 536,2503l-3753 0c-417,-418 -656,-1133 -656,-2265l0 -3038c0,-417 -119,-715 -357,-953 -238,-239 -536,-358 -894,-358l0 6614 -4051 0 0 -15611 59 0zm15134 7865l0 2681 -5065 0 0 -2681 5065 0zm1192 -7865l4051 0 0 6614c775,0 1132,-417 1132,-1251l60 -3039c0,-1132 238,-1907 655,-2264l3754 0c-358,357 -537,1191 -537,2324l0 2681c0,1608 -893,2562 -2740,2740 1847,239 2740,1132 2740,2801l0 2502c0,1192 179,2026 537,2503l-3754 0c-417,-418 -655,-1133 -655,-2265l0 -3038c0,-417 -119,-715 -358,-953 -238,-239 -536,-358 -894,-358l0 6614 -4051 0 0 -15611 60 0zm18529 0l-1132 10367c-178,1609 -357,2801 -536,3456 -179,655 -596,1132 -1132,1430 -596,298 -1490,417 -2800,417l-2384 0 0 -2026 239 0c536,0 834,-59 1013,-119 119,-59 178,-238 178,-417 0,0 -59,-477 -238,-1311l-2145 -11737 3515 0 1252 9712 595 -9712 3516 0 59 -60zm10070 15611l-4052 0 0 -12513 -1192 0 0 12513 -4051 0 0 -15611 9295 0 0 15611zm10605 0l-3396 0 0 -7091 -2086 7091 -3515 0 0 -15611 3396 0 0 7031 2264 -7031 3337 0 0 15611 0 0zm9771 -15611l0 3098 -2383 0 0 12513 -4051 0 0 -12513 -2384 0 0 -3098 8818 0 0 0zm10308 11976c0,1132 -179,2026 -477,2502 -298,537 -774,835 -1370,954 -596,119 -1609,179 -2920,179l-4647 0 0 -15611 4052 0 0 5363 595 0c1252,0 2205,59 2801,238 655,119 1132,477 1430,953 298,477 476,1311 476,2383l0 3039 60 0zm-4052 -477l0 -2264c0,-655 -59,-1072 -178,-1191 -120,-119 -477,-239 -1132,-239l0 5124c536,0 834,-59 1012,-178 179,-120 298,-537 298,-1252l0 0zm7925 954l0 3158 -2920 0 0 -3158 2920 0zm1132 -12453l4051 0c1073,0 1966,60 2562,239 596,178 1013,417 1311,774 298,358 477,715 596,1192 119,476 179,1191 179,2145l0 1370c0,1013 -120,1728 -298,2205 -179,476 -596,834 -1132,1072 -537,238 -1252,358 -2145,358l-1073 0 0 6315 -4051 0 0 -15610 0 -60zm4051 2681l0 3992c119,0 239,0 298,0 358,0 596,-119 775,-298 119,-178 238,-536 238,-1132l0 -1310c0,-537 -60,-894 -238,-1073 -179,-179 -537,-238 -1013,-238l-60 59zm20317 5303c0,1013 -59,1728 -119,2205 -119,595 -417,1191 -834,1668 -655,774 -1966,1192 -3813,1192l-715 0 0 2562 -4052 0 0 -2562 -595 0c-1907,0 -3158,-418 -3814,-1192 -417,-477 -715,-1073 -834,-1668 -119,-477 -119,-1192 -119,-2205l0 -298c0,-1013 60,-1728 119,-2204 119,-596 417,-1192 834,-1669 656,-774 1967,-1132 3814,-1132 119,0 357,0 595,0l0 -2621 4052 0 0 2621c298,0 536,0 715,0 1907,0 3158,358 3813,1132 417,477 715,1073 834,1669 119,476 119,1191 119,2204l0 298zm-4051 894l0 -2026c0,-536 -119,-953 -298,-1311 -179,-298 -477,-476 -775,-476l-417 0 0 5541 417 0c298,0 537,-179 775,-477 179,-298 298,-774 298,-1251zm-5541 1728l0 -5541 -358 0c-298,0 -536,178 -774,476 -239,298 -298,775 -298,1311l0 2026c0,536 119,953 298,1251 179,298 476,477 774,477l358 0z"/>
  <path class="fil1" d="M79480 37308l-2800 0 0 -2681 -6495 0 0 2681 -2800 0 0 -5958 834 0c417,-1251 775,-2979 1072,-5064 298,-2086 418,-4350 418,-6852l0 -477 8937 0 0 12333 834 0 0 5958 0 60zm-4886 -5958l0 -9235 -1191 0 0 119c0,2979 -298,6018 -954,9176l2145 0 0 -60zm10606 -3456c-834,0 -1252,358 -1252,1073l0 4111c0,536 -59,953 -178,1132 -119,238 -179,357 -239,357l-3336 0c298,-417 417,-1013 417,-1847l0 -3515c0,-775 179,-1311 596,-1728 417,-417 1132,-655 2145,-834l0 0c-1788,-119 -2741,-953 -2741,-2562l0 -3337c0,-834 -119,-1430 -417,-1847l3336 0c120,60 179,179 298,417 119,239 119,596 119,1073l0 3873c0,715 418,1072 1252,1132l0 -6495 4051 0 0 6495c834,0 1251,-417 1251,-1132l0 -3873c0,-536 60,-894 179,-1132 119,-238 179,-358 238,-358l3337 0c-298,417 -417,1013 -417,1847l0 3337c0,1609 -894,2443 -2741,2562l0 0c1013,179 1728,477 2145,834 417,417 596,953 596,1728l0 3515c0,834 119,1430 417,1847l-3337 0c-119,-59 -178,-178 -297,-417 -120,-238 -120,-596 -120,-1072l0 -4111c0,-715 -417,-1073 -1251,-1073l0 6733 -4051 0 0 -6733 0 0zm10069 -8877l6733 0 0 3098 -2682 0 0 2979 2503 0 0 2979 -2503 0 0 3456 2979 0 0 3098 -7030 0 0 -15610 0 0zm17398 0l0 15610 -4052 0 0 -6554 -1192 0 0 6554 -4051 0 0 -15610 4051 0 0 5600 1192 0 0 -5600 4052 0zm1608 0l6733 0 0 3098 -2681 0 0 2979 2502 0 0 2979 -2502 0 0 3456 2979 0 0 3098 -7031 0 0 -15610 0 0zm8163 0l4051 0c1073,0 1967,59 2562,238 596,179 1013,417 1311,774 298,358 477,715 596,1192 119,477 179,1192 179,2145l0 1370c0,1013 -119,1728 -298,2205 -179,477 -596,834 -1132,1072 -536,239 -1251,358 -2145,358l-1073 0 0 6315 -4051 0 0 -15610 0 -59zm4051 2681l0 3992c120,0 239,0 298,0 358,0 596,-119 775,-298 119,-179 238,-536 238,-1132l0 -1311c0,-536 -59,-894 -238,-1073 -179,-178 -536,-238 -1013,-238l-60 60zm14777 12929l-3397 0 0 -7090 -2085 7090 -3515 0 0 -15610 3396 0 0 7030 2264 -7030 3337 0 0 15610 0 0zm1608 -15610l4052 0 0 6613c774,0 1132,-417 1132,-1251l59 -3039c0,-1132 239,-1906 656,-2264l3753 0c-357,358 -536,1192 -536,2324l0 2681c0,1609 -893,2562 -2741,2741 1848,238 2741,1132 2741,2800l0 2502c0,1192 179,2026 536,2503l-3753 0c-417,-417 -656,-1132 -656,-2264l0 -3039c0,-417 -119,-715 -357,-953 -238,-238 -536,-358 -894,-358l0 6614 -4051 0 0 -15610 59 0zm15134 7864l0 2681 -5065 0 0 -2681 5065 0zm1192 -7864l4051 0 0 6613c775,0 1132,-417 1132,-1251l60 -3039c0,-1132 238,-1906 655,-2264l3754 0c-358,358 -537,1192 -537,2324l0 2681c0,1609 -893,2562 -2740,2741 1847,238 2740,1132 2740,2800l0 2502c0,1192 179,2026 537,2503l-3754 0c-417,-417 -655,-1132 -655,-2264l0 -3039c0,-417 -119,-715 -358,-953 -238,-238 -536,-358 -894,-358l0 6614 -4051 0 0 -15610 60 0zm18529 0l-1132 10367c-178,1608 -357,2800 -536,3455 -179,656 -596,1132 -1132,1430 -596,298 -1490,417 -2800,417l-2384 0 0 -2025 239 0c536,0 834,-60 1013,-119 119,-60 178,-239 178,-418 0,0 -59,-476 -238,-1310l-2145 -11738 3515 0 1252 9712 595 -9712 3516 0 59 -59zm10070 15610l-4052 0 0 -12512 -1192 0 0 12512 -4051 0 0 -15610 9295 0 0 15610zm10605 0l-3396 0 0 -7090 -2086 7090 -3515 0 0 -15610 3396 0 0 7030 2264 -7030 3337 0 0 15610 0 0zm9771 -15610l0 3098 -2383 0 0 12512 -4051 0 0 -12512 -2384 0 0 -3098 8818 0 0 0zm10308 11975c0,1132 -179,2026 -477,2503 -298,536 -774,834 -1370,953 -596,119 -1609,179 -2920,179l-4647 0 0 -15610 4052 0 0 5362 595 0c1252,0 2205,59 2801,238 655,119 1132,477 1430,954 298,476 476,1310 476,2383l0 3038 60 0zm-4052 -476l0 -2264c0,-656 -59,-1073 -178,-1192 -120,-119 -477,-238 -1132,-238l0 5124c536,0 834,-60 1012,-179 179,-119 298,-536 298,-1251l0 0zm7925 953l0 3158 -2920 0 0 -3158 2920 0zm1132 -12452l4051 0c1073,0 1966,59 2562,238 596,179 1013,417 1311,774 298,358 477,715 596,1192 119,477 179,1192 179,2145l0 1370c0,1013 -120,1728 -298,2205 -179,477 -596,834 -1132,1072 -537,239 -1252,358 -2145,358l-1073 0 0 6315 -4051 0 0 -15610 0 -59zm4051 2681l0 3992c119,0 239,0 298,0 358,0 596,-119 775,-298 119,-179 238,-536 238,-1132l0 -1311c0,-536 -60,-894 -238,-1073 -179,-178 -537,-238 -1013,-238l-60 60zm20317 5302c0,1013 -59,1728 -119,2205 -119,596 -417,1192 -834,1668 -655,775 -1966,1192 -3813,1192l-715 0 0 2562 -4052 0 0 -2562 -595 0c-1907,0 -3158,-417 -3814,-1192 -417,-476 -715,-1072 -834,-1668 -119,-477 -119,-1192 -119,-2205l0 -297c0,-1013 60,-1728 119,-2205 119,-596 417,-1192 834,-1668 656,-775 1967,-1132 3814,-1132 119,0 357,0 595,0l0 -2622 4052 0 0 2622c298,0 536,0 715,0 1907,0 3158,357 3813,1132 417,476 715,1072 834,1668 119,477 119,1192 119,2205l0 297zm-4051 894l0 -2026c0,-536 -119,-953 -298,-1310 -179,-298 -477,-477 -775,-477l-417 0 0 5541 417 0c298,0 537,-179 775,-477 179,-298 298,-774 298,-1251zm-5541 1728l0 -5541 -358 0c-298,0 -536,179 -774,477 -239,298 -298,774 -298,1310l0 2026c0,536 119,954 298,1251 179,298 476,477 774,477l358 0z"/>
 </g>
 <g id="Слой_x0020_2">
  <metadata id="CorelCorpID_1Corel-Layer"/>
  <path class="fil2" d="M40931 14680l6125 -6125c2346,-2346 5151,-3376 7898,-3376 3034,0 5953,1201 8070,3319 2061,2061 3320,5037 3320,8070l0 0c0,2748 -1030,5609 -3377,7899l-6124 6124 -1660 1660 -1660 -1660 -12534 -12534 -1660 -1660 1660 -1660 -58 -57zm9502 -2805l-4465 4464 9215 9215 4464 -4464c1374,-1374 2004,-3033 2004,-4579l0 0c0,-1774 -687,-3491 -1946,-4693 -1202,-1202 -2919,-1946 -4694,-1946 -1545,0 -3205,629 -4578,2003z"/>
  <path class="fil3" d="M18552 30591l-6124 -6124c-2347,-2347 -3377,-5151 -3377,-7899 0,-3033 1202,-5952 3320,-8070 2060,-2060 5037,-3319 8070,-3319l0 0c2747,0 5609,1030 7899,3376l6124 6125 1660 1660 -1660 1659 -12535 12535 -1660 1660 -1660 -1660 -57 57z"/>
  <path class="fil4" d="M38985 26184c-286,-286 -744,-515 -1202,-515 -457,0 -915,172 -1201,515 -287,286 -516,744 -516,1202 0,458 172,916 516,1202 286,286 744,515 1201,515 458,0 916,-172 1202,-515 287,-286 516,-744 516,-1202 0,-458 -172,-916 -516,-1202zm-915 -2347l0 1202c515,58 1030,344 1373,687 458,458 687,1030 687,1717 0,687 -286,1259 -687,1717 -343,344 -858,630 -1373,687l-687 0c-515,-57 -1030,-343 -1374,-687 -458,-458 -687,-1030 -687,-1717 0,-687 287,-1259 687,-1717 344,-343 859,-629 1374,-687l0 -1202 -458 401c-115,114 -343,114 -458,0 -114,-114 -114,-343 0,-458l1030 -973c115,-114 344,-114 458,0l1030 973c115,115 115,344 0,458 -114,114 -343,114 -457,0l-458 -401 0 0z"/>
  <path class="fil5" d="M38070 29790l0 286 0 401 744 0c171,0 343,171 343,343 0,172 -172,344 -343,344l-744 0 0 572c0,172 -172,343 -344,343 -171,0 -343,-171 -343,-343l0 -572 -744 0c-172,0 -344,-172 -344,-344 0,-172 172,-343 344,-343l744 0 0 -344 0 -343 687 0z"/>
  <path class="fil6" d="M49574 31221l-458 -458 -515 515c-114,114 -343,114 -458,0 -114,-114 -114,-343 0,-458l515 -515 -400 -401c-115,-114 -115,-343 0,-458 114,-114 343,-114 457,0l401 401 515 -515c115,-114 344,-114 458,0 115,114 115,343 0,458l-515 515 458 458c401,-344 916,-458 1431,-458 629,0 1259,229 1717,687 458,458 687,1087 687,1717 0,629 -229,1259 -687,1717 -458,458 -1088,687 -1717,687 -630,0 -1259,-229 -1717,-687 -458,-458 -687,-1088 -687,-1717 0,-515 172,-1030 458,-1431l57 -57zm1946 3205c458,0 859,-172 1202,-515 343,-344 515,-801 515,-1202 0,-458 -172,-859 -515,-1202 -343,-343 -801,-515 -1202,-515 -458,0 -859,172 -1202,515 -343,343 -515,801 -515,1202 0,458 172,858 515,1202 343,343 801,515 1202,515z"/>
  <path class="fil7" d="M26851 30534l-858 858c343,401 458,916 458,1431 0,630 -229,1260 -687,1717 -458,458 -1087,687 -1717,687 -630,0 -1259,-229 -1717,-687 -458,-457 -687,-1087 -687,-1717 0,-629 229,-1259 687,-1717 458,-458 1087,-687 1717,-687 515,0 1030,172 1431,458l858 -858 -629 0c-172,0 -344,-172 -344,-344 0,-171 172,-343 344,-343l1431 0c171,0 343,172 343,343l0 1431c0,172 -172,344 -343,344 -172,0 -344,-172 -344,-344l0 -629 57 57zm-1030 2289c0,-458 -171,-858 -515,-1202 -343,-343 -801,-515 -1202,-515 -458,0 -858,172 -1202,515 -343,344 -515,802 -515,1202 0,458 172,859 515,1202 344,344 802,515 1202,515 458,0 859,-171 1202,-515 344,-343 515,-801 515,-1202z"/>
  <path class="fil8" d="M38985 34655c-286,-286 -744,-515 -1202,-515 -457,0 -915,171 -1201,515 -287,286 -516,744 -516,1202 0,458 172,916 516,1202 286,286 744,515 1201,515 458,0 916,-172 1202,-515 287,-286 516,-744 516,-1202 0,-458 -172,-916 -516,-1202zm687 -286c344,400 515,915 515,1488 0,687 -286,1259 -686,1717 -344,343 -859,629 -1374,687l0 687 744 0c172,0 343,171 343,343 0,172 -171,343 -343,343l-744 0 0 573c0,171 -172,343 -344,343 -171,0 -343,-172 -343,-343l0 -573 -744 0c-172,0 -343,-171 -343,-343 0,-172 171,-343 343,-343l744 0 0 -687c-515,-58 -1030,-344 -1374,-687 -458,-458 -686,-1030 -686,-1717 0,-687 286,-1259 686,-1717 458,-458 1031,-687 1717,-687 516,0 1031,172 1431,458l515 458 -57 0z"/>
  <path class="fil9" d="M40531 33453l-573 572 -343 344 -515 -458 343 -344 573 -572 -630 0c-172,0 -343,-172 -343,-343 0,-172 171,-344 343,-344l1431 0c172,0 343,172 343,344l0 0 0 1431c0,171 -171,343 -343,343 -172,0 -343,-172 -343,-343l0 -630 57 0z"/>
  <path class="fil10" d="M36524 42611c286,-287 744,-515 1202,-515 458,0 916,171 1202,515 286,286 515,744 515,1202 0,457 -171,915 -515,1201 -286,287 -744,516 -1202,516 -458,0 -916,-172 -1202,-516 -286,-286 -515,-744 -515,-1201 0,-458 172,-916 515,-1202zm-1602 -1145l915 916c-343,400 -515,915 -515,1488 0,687 287,1259 687,1717 344,343 859,629 1374,687l687 0c515,-58 1030,-344 1373,-687 458,-458 687,-1030 687,-1717 0,-687 -286,-1259 -687,-1717 -458,-458 -1030,-687 -1717,-687 -515,0 -1030,172 -1431,458l-915 -916 629 0c172,0 344,-172 344,-343 0,-172 -172,-344 -344,-344l-1431 0c-171,0 -343,172 -343,344l0 0 0 1430c0,172 172,344 343,344 172,0 344,-172 344,-344l0 -629 0 0z"/>
  <path class="fil11" d="M37440 46216l0 516 0 171 -744 0c-172,0 -343,172 -343,344 0,171 171,343 343,343l744 0 0 572c0,172 172,344 343,344 172,0 344,-172 344,-344l0 -572 744 0c172,0 343,-172 343,-343 0,-172 -171,-344 -343,-344l-744 0 0 -171 0 -516 -687 0z"/>
  <path class="fil12" d="M30686 34311l-858 859c343,401 458,916 458,1431 0,629 -229,1259 -687,1717 -458,458 -1088,687 -1717,687 -630,0 -1259,-229 -1717,-687 -458,-458 -687,-1088 -687,-1717 0,-630 229,-1259 687,-1717 458,-458 1087,-687 1717,-687 515,0 1030,172 1431,458l858 -859 -629 0c-172,0 -344,-171 -344,-343 0,-172 172,-343 344,-343l1430 0c172,0 344,171 344,343l0 1431c0,172 -172,343 -344,343 -171,0 -343,-171 -343,-343l0 -630 57 57zm-1030 2290c0,-458 -172,-859 -515,-1202 -344,-343 -801,-515 -1202,-515 -458,0 -859,172 -1202,515 -343,343 -515,801 -515,1202 0,458 172,858 515,1202 343,343 801,515 1202,515 458,0 858,-172 1202,-515 343,-344 515,-801 515,-1202z"/>
  <path class="fil13" d="M34578 38375l-858 859c343,400 458,915 458,1431 0,629 -229,1259 -687,1717 -458,458 -1088,686 -1717,686 -630,0 -1259,-228 -1717,-686 -458,-458 -687,-1088 -687,-1717 0,-630 229,-1260 687,-1717 458,-458 1087,-687 1717,-687 515,0 1030,171 1431,458l858 -859 -629 0c-172,0 -344,-172 -344,-343 0,-172 172,-344 344,-344l1430 0c172,0 344,172 344,344l0 1431c0,171 -172,343 -344,343 -171,0 -343,-172 -343,-343l0 -630 57 57zm-1030 2290c0,-458 -172,-859 -515,-1202 -344,-344 -801,-515 -1202,-515 -458,0 -859,171 -1202,515 -343,343 -515,801 -515,1202 0,457 172,858 515,1202 343,343 801,515 1202,515 458,0 858,-172 1202,-515 343,-344 515,-802 515,-1202z"/>
  <path class="fil14" d="M45396 35342l-458 -458 -515 515c-115,114 -344,114 -458,0 -115,-115 -115,-343 0,-458l515 -515 -401 -401c-114,-114 -114,-343 0,-458 115,-114 344,-114 458,0l401 401 515 -515c114,-115 343,-115 458,0 114,114 114,343 0,458l-515 515 458 458c400,-344 915,-458 1431,-458 629,0 1259,229 1717,687 457,458 686,1087 686,1717 0,629 -229,1259 -686,1717 -458,458 -1088,687 -1717,687 -630,0 -1260,-229 -1718,-687 -457,-458 -686,-1088 -686,-1717 0,-515 171,-1030 458,-1431l57 -57zm1946 3205c458,0 858,-172 1202,-515 343,-344 515,-802 515,-1202 0,-458 -172,-859 -515,-1202 -344,-344 -802,-515 -1202,-515 -458,0 -859,171 -1202,515 -344,343 -515,801 -515,1202 0,458 171,858 515,1202 343,343 801,515 1202,515z"/>
  <path class="fil15" d="M41218 39520l-458 -458 -515 515c-115,115 -344,115 -458,0 -115,-114 -115,-343 0,-458l515 -515 -401 -400c-114,-115 -114,-344 0,-458 115,-115 344,-115 458,0l401 400 515 -515c114,-114 343,-114 458,0 114,115 114,344 0,458l-515 515 457 458c401,-343 916,-458 1431,-458 630,0 1260,229 1717,687 458,458 687,1087 687,1717 0,630 -229,1259 -687,1717 -457,458 -1087,687 -1717,687 -629,0 -1259,-229 -1717,-687 -458,-458 -687,-1087 -687,-1717 0,-515 172,-1030 458,-1431l58 -57zm1946 3205c457,0 858,-172 1202,-515 343,-343 515,-801 515,-1202 0,-458 -172,-858 -515,-1202 -344,-343 -802,-515 -1202,-515 -458,0 -859,172 -1202,515 -344,344 -515,801 -515,1202 0,458 171,859 515,1202 343,343 801,515 1202,515z"/>
  <path class="fil16" d="M44423 25955l-458 -458 -515 515c-115,115 -344,115 -458,0 -115,-114 -115,-343 0,-458l515 -515 -401 -400c-114,-115 -114,-344 0,-458 115,-115 344,-115 458,0l401 400 515 -515c114,-114 343,-114 458,0 114,115 114,344 0,458l-515 515 458 458c400,-343 915,-458 1431,-458 629,0 1259,229 1717,687 458,458 686,1088 686,1717 0,630 -228,1259 -686,1717 -458,458 -1088,687 -1717,687 -630,0 -1260,-229 -1718,-687 -457,-458 -686,-1087 -686,-1717 0,-515 171,-1030 458,-1431l57 -57zm1946 3205c458,0 858,-171 1202,-515 343,-343 515,-801 515,-1202 0,-458 -172,-858 -515,-1202 -344,-343 -802,-515 -1202,-515 -458,0 -859,172 -1202,515 -344,344 -515,802 -515,1202 0,458 171,859 515,1202 343,344 801,515 1202,515z"/>
  <path class="fil17" d="M39329 20689l-458 -458 -515 516c-115,114 -344,114 -458,0 -115,-115 -115,-344 0,-458l515 -515 -401 -401c-114,-114 -114,-343 0,-458 115,-114 344,-114 458,0l401 401 515 -515c115,-115 343,-115 458,0 114,114 114,343 0,458l-515 515 458 457c400,-343 915,-457 1431,-457 629,0 1259,229 1717,686 458,458 686,1088 686,1718 0,629 -228,1259 -686,1717 -458,457 -1088,686 -1717,686 -630,0 -1260,-229 -1717,-686 -458,-458 -687,-1088 -687,-1717 0,-516 171,-1031 458,-1431l57 -58zm1946 3206c458,0 858,-172 1202,-516 343,-343 515,-801 515,-1201 0,-458 -172,-859 -515,-1202 -344,-344 -802,-516 -1202,-516 -458,0 -859,172 -1202,516 -344,343 -515,801 -515,1202 0,457 171,858 515,1201 343,344 801,516 1202,516z"/>
  <path class="fil18" d="M31888 25325l-858 859c343,401 458,916 458,1431 0,629 -229,1259 -687,1717 -458,458 -1088,687 -1717,687 -630,0 -1260,-229 -1717,-687 -458,-458 -687,-1088 -687,-1717 0,-630 229,-1259 687,-1717 457,-458 1087,-687 1717,-687 515,0 1030,172 1431,458l858 -859 -630 0c-171,0 -343,-171 -343,-343 0,-172 172,-344 343,-344l1431 0c172,0 344,172 344,344l0 1431c0,171 -172,343 -344,343 -171,0 -343,-171 -343,-343l0 -630 57 57zm-1030 2290c0,-458 -172,-859 -515,-1202 -344,-343 -801,-515 -1202,-515 -458,0 -859,172 -1202,515 -343,343 -515,801 -515,1202 0,458 172,858 515,1202 343,343 801,515 1202,515 458,0 858,-172 1202,-515 343,-344 515,-801 515,-1202z"/>
  <path class="fil19" d="M36810 19831l-858 858c343,401 458,916 458,1431 0,630 -229,1259 -687,1717 -458,458 -1088,687 -1717,687 -630,0 -1259,-229 -1717,-687 -458,-458 -687,-1087 -687,-1717 0,-629 229,-1259 687,-1717 458,-458 1087,-687 1717,-687 515,0 1030,172 1431,458l858 -858 -629 0c-172,0 -344,-172 -344,-344 0,-171 172,-343 344,-343l1431 0c171,0 343,172 343,343l0 1431c0,172 -172,344 -343,344 -172,0 -344,-172 -344,-344l0 -629 57 57zm-1030 2289c0,-458 -171,-858 -515,-1202 -343,-343 -801,-515 -1202,-515 -458,0 -858,172 -1202,515 -343,344 -515,802 -515,1202 0,458 172,859 515,1202 344,344 802,515 1202,515 458,0 859,-171 1202,-515 344,-343 515,-801 515,-1202z"/>
  <path class="fil20" d="M44308 30648l573 344 343 -630c115,-172 286,-229 458,-114 172,114 229,286 114,458l-343 629 515 286c172,115 229,287 115,458 -115,172 -287,229 -458,115l-515 -286 -344 629c-114,172 -286,229 -458,115 -171,-115 -229,-287 -114,-458l343 -630 -572 -343c-344,400 -801,687 -1259,858 -573,172 -1259,115 -1832,-229 -572,-343 -973,-858 -1145,-1488 -171,-572 -114,-1259 229,-1831 344,-573 859,-973 1489,-1145 572,-172 1259,-115 1831,229 572,343 973,858 1145,1488 114,515 114,1030 -115,1545l0 0zm-2690 -2575c-400,114 -801,400 -1030,801 -229,401 -286,859 -172,1316 115,401 401,802 802,1031 400,229 858,286 1316,171 401,-114 801,-400 1030,-801 229,-401 286,-858 172,-1316 -115,-401 -401,-802 -801,-1031 -401,-228 -859,-286 -1317,-171z"/>
  <path class="fil21" d="M33376 28702l344 1202c515,-57 1030,58 1488,286 515,287 973,802 1145,1489 171,629 57,1316 -229,1831 -287,515 -802,973 -1489,1145 -629,172 -1316,57 -1831,-229 -515,-286 -973,-801 -1145,-1488 -171,-630 -57,-1317 229,-1832 229,-458 630,-801 1145,-1030l-344 -1202 -286 515c-114,172 -286,229 -458,115 -171,-115 -229,-287 -114,-458l687 -1202c114,-172 286,-229 458,-115l1202 687c171,115 229,286 114,458 -114,172 -286,229 -458,115l-515 -287 57 0zm1488 2061c-400,-229 -858,-286 -1316,-172 -458,115 -801,401 -1030,801 -229,401 -286,859 -172,1317 115,458 401,801 801,1030 401,229 859,286 1317,172 458,-115 801,-401 1030,-801 229,-401 286,-859 172,-1317 -115,-458 -401,-801 -802,-1030z"/>
  <circle class="fil22" cx="33891" cy="35857" r="859"/>
  <circle class="fil23" cx="33605" cy="44671" r="630"/>
  <circle class="fil24" cx="39100" cy="17713" r="572"/>
  <circle class="fil25" cx="35952" cy="17713" r="572"/>
  <circle class="fil26" cx="29370" cy="31621" r="859"/>
  <circle class="fil27" cx="41447" cy="45072" r="859"/>
  <circle class="fil28" cx="47513" cy="32365" r="859"/>
  <circle class="fil29" cx="41561" cy="25955" r="916"/>
  <circle class="fil30" cx="33949" cy="26184" r="973"/>
  <circle class="fil31" cx="42248" cy="35685" r="1488"/>
  <path class="fil32" d="M40931 14165l6125 -6125c2346,-2346 5151,-3377 7898,-3377 3034,0 5953,1202 8070,3320 2061,2061 3320,5037 3320,8070l0 0c0,2748 -1030,5609 -3377,7899l-6124 6124 -1660 1660 -1660 -1660 -12534 -12535 -1660 -1659 1660 -1660 -58 -57zm9502 -2805l-4465 4464 9215 9215 4464 -4464c1374,-1374 2004,-3034 2004,-4579l0 0c0,-1774 -687,-3491 -1946,-4693 -1202,-1202 -2919,-1946 -4694,-1946 -1545,0 -3205,629 -4578,2003z"/>
  <path class="fil33" d="M18552 30076l-6124 -6124c-2347,-2347 -3377,-5151 -3377,-7899 0,-3033 1202,-5952 3320,-8070 2060,-2060 5037,-3320 8070,-3320l0 0c2747,0 5609,1031 7899,3377l6124 6125 1660 1659 -1660 1660 -12535 12535 -1660 1660 -1660 -1660 -57 57z"/>
 </g>
</svg>
